0xff023 12
add 22265
addi 5969
addiw 8
and 1
andi 27
beq 216
beqz 27
bgeu 11
bgtz 3
blez 3
blt 4513
bltu 20
bltz 7
bne 9
bnez 25
ecall 6
j 13198
jal 40
jalr 9
lbu 1
ld 37265
lh 17746
lhu 6
li 4722
lui 17
lw 1427
mul 6886
mulw 128
mv 96
neg 1
or 6
ori 3
ret 50
sb 1
sd 11506
seqz 1
sext.w 7
sh 4148
sll 1
slli 10326
sllw 1
sra 64
srai 379
sraiw 1
sraw 64
srli 353
sub 398
subw 2
sw 421
xor 3
